pollutant
…
poll_clean <- poll %>%
  mutate(
    date = ymd(date),
    year = year(date),
    month = month(date, label = TRUE)
  ) %>%
  filter(!is.na(date)) %>%      
  filter(!is.na(state))             

poll_clean %>%
  count(year)

# A tibble: 24 × 2
    year     n
   <dbl> <int>
 1  2000 23180
 2  2001 23489
 3  2002 24457
 4  2003 22636
 5  2004 22248
 6  2005 22932
 7  2006 24251
 8  2007 28357
 9  2008 29273
10  2009 25815
# ℹ 14 more rows

poll_clean %>%
  count(state, sort = TRUE)

# A tibble: 48 × 2
   state               n
   <chr>           <int>
 1 California     201244
 2 Pennsylvania    54142
 3 Texas           38980
 4 Arizona         25118
 5 New York        22685
 6 Virginia        20571
 7 Colorado        16198
 8 North Carolina  14449
 9 Illinois        13803
10 Ohio            13376
# ℹ 38 more rows
…
